[
  {
    "Author": "53m1k0l0n",
    "Name": "Lazy Loot",
    "Description": "Various commands to need, greed, or pass on all loot. Chat and Toast output and delay for rolling.",
    "InternalName": "LazyLoot",
    "AssemblyVersion": "5.0.7",
    "Changelog": "Config save excutes properly now",
    "RepoUrl": "https://github.com/53m1k0l0n/FFXIV-LazyLoot",
    "ApplicableVersion": "any",
    "Tags": [
      "plugin",
      "loot",
      "utility",
      "other"
    ],
    "DalamudApiLevel": 8,
    "IsHide": "False",
    "IsTestingExclusive": "False",
    "LastUpdated": 0,
    "DownloadCount": 0,
    "IconUrl": "https://raw.githubusercontent.com/53m1k0l0n/FFXIV-LazyLoot/main/LazyLoot/Images/icon.png",
    "DownloadLinkInstall": "https://github.com/53m1k0l0n/FFXIV-LazyLoot/releases/download/v5.0.7/latest.zip",
    "DownloadLinkUpdate": "https://github.com/53m1k0l0n/FFXIV-LazyLoot/releases/download/v5.0.7/latest.zip"
  }
]
